사번,IoT,SW공학,기술관리,네트워크,데이터베이스,데이터사이언스,디자인,보안,블록체인,빅데이터,세미나,시스템,운영체제,인공지능,클라우드,품질,프로그래밍,IT프로젝트관리,핀테크
28106559,0,0,0,0,0,0,0,1,0,0,0,0,0,1,0,0,1,0,0
28106604,0,0,0,0,0,0,0,0,1,1,0,0,0,1,1,0,0,0,0
28106583,0,0,0,0,0,0,0,0,0,0,0,0,0,0,0,0,1,0,0
28106556,0,1,0,0,1,0,0,0,0,0,0,0,0,0,0,0,1,0,0
28106571,0,0,0,1,1,0,0,0,0,0,0,0,0,0,0,0,1,0,0
28106595,0,0,0,0,1,0,0,0,1,0,0,0,1,1,0,0,1,0,1
28106577,1,0,0,1,0,1,0,0,0,0,0,1,0,0,0,0,0,0,0
28106607,0,0,0,0,0,0,0,0,0,1,0,0,0,1,0,0,0,0,0
28106598,0,0,0,0,1,1,0,0,0,0,0,0,0,0,0,0,0,0,0
28106622,1,0,0,0,0,0,0,0,0,0,0,0,0,0,0,0,0,0,0
28106619,1,0,0,0,0,0,0,0,1,0,0,0,0,1,0,0,0,0,0
28106589,1,1,1,1,1,1,1,1,1,1,0,1,1,1,1,1,1,0,0
28106610,0,0,0,1,0,0,0,0,0,0,0,0,0,0,1,0,0,0,0
28106628,0,0,0,0,1,1,0,0,1,1,0,0,0,1,1,0,1,0,0
28106616,1,1,1,1,1,1,0,1,1,1,0,1,1,1,1,0,0,0,1
28106586,1,0,0,0,1,0,0,0,1,0,0,0,0,0,1,0,1,0,0
28106625,1,0,0,0,1,0,0,0,0,1,0,0,0,0,1,0,1,0,0
28106565,0,1,0,0,0,0,0,0,0,0,0,0,0,0,0,0,1,0,0
28106574,0,1,1,0,1,0,0,0,0,1,0,0,0,0,0,0,0,0,0
28106592,1,0,0,0,0,0,0,1,0,0,0,1,0,0,1,0,0,0,0
28106580,0,1,0,0,1,1,0,0,0,1,0,0,1,0,0,0,0,1,0
28106562,1,1,1,1,1,1,0,0,0,0,1,0,1,1,0,1,0,1,1
20186568,0,0,0,0,1,1,0,0,0,1,0,0,0,1,0,0,0,1,1
28106613,1,1,0,1,1,1,0,1,1,1,0,1,0,1,0,1,1,0,1
28106601,0,1,0,0,0,0,0,1,1,1,0,0,1,1,0,0,1,1,1
