타임스탬프,귀하의 성명,귀하의 사번,1. 귀하의 직무는?,1-1. (개발 직무자) 귀하가 사용하는 언어는?(최대 3개),1 -2. 귀하가 원하는 과정 수준은?,2. 최근 관심있는 IT 트랜드는?
2021. 5. 3 오후 3:08:24,김범미,28106559,개발,"C / C++, 기타",전문과정,"보안, 인공지능, 프로그래밍"
2021. 5. 3 오후 3:11:59,이은비,28106604,개발,"JAVA, C / C++, Python",전문과정,"블록체인, 빅데이터, 인공지능, 클라우드"
2021. 5. 3 오후 3:12:38,손영국,28106583,개발,"JAVA, 웹(자바스크립트, HTML, CSS 등)",기초과정,프로그래밍
2021. 5. 3 오후 3:13:53,김민섭,28106556,개발,"JAVA, 웹(자바스크립트, HTML, CSS 등)",전문과정,"SW공학, 데이터베이스, 프로그래밍"
2021. 5. 3 오후 3:16:04,맹준영,28106571,개발,"JAVA, C / C++, 웹(자바스크립트, HTML, CSS 등)",전문과정,"네트워크, 데이터베이스, 프로그래밍"
2021. 5. 3 오후 3:18:21,윤희원,28106595,개발,"JAVA, C / C++, Python",전문과정,"데이터베이스, 블록체인, 운영체제, 인공지능, 프로그래밍, 핀테크"
2021. 5. 3 오후 3:20:06,박정민,28106577,개발,"Python, 기타",전문과정,"IoT, 네트워크, 데이터사이언스, 시스템"
2021. 5. 3 오후 3:20:30,장요한,28106607,개발,"JAVA, Python, 웹(자바스크립트, HTML, CSS 등)",전문과정,"빅데이터, 인공지능"
2021. 5. 3 오후 3:22:23,이건수,28106598,개발,"JAVA, C / C++, 기타",기초과정,"데이터베이스, 데이터사이언스"
2021. 5. 3 오후 3:23:14,진예지,28106622,개발,기타,기초과정,IoT
2021. 5. 3 오후 3:23:37,진연주,28106619,개발,"JAVA, C#, 웹(자바스크립트, HTML, CSS 등)",전문과정,"IoT, 블록체인, 인공지능"
2021. 5. 3 오후 3:24:09,유정환,28106589,개발,"JAVA, C / C++, C#, Python, 웹(자바스크립트, HTML, CSS 등)",전문과정,"IoT, SW공학, 기술관리, 네트워크, 데이터베이스, 데이터사이언스, 디자인, 보안, 블록체인, 빅데이터, 시스템, 운영체제, 인공지능, 클라우드, 품질, 프로그래밍"
2021. 5. 3 오후 3:47:16,전동진,28106610,비개발,,기초과정,"네트워크, 클라우드"
2021. 5. 3 오후 3:54:56,피도윤,28106628,개발,"웹(자바스크립트, HTML, CSS 등)",기초과정,"데이터베이스, 데이터사이언스, 블록체인, 빅데이터, 인공지능, 클라우드, 프로그래밍"
2021. 5. 3 오후 3:56:21,진슬기,28106616,개발,"JAVA, Python, 웹(자바스크립트, HTML, CSS 등)",전문과정,"IoT, SW공학, 기술관리, 네트워크, 데이터베이스, 데이터사이언스, 보안, 블록체인, 빅데이터, 시스템, 운영체제, 인공지능, 클라우드, 핀테크"
2021. 5. 3 오후 5:03:29,안채영,28106586,개발,"JAVA, 웹(자바스크립트, HTML, CSS 등)",전문과정,"IoT, 데이터베이스, 블록체인, 클라우드, 프로그래밍"
2021. 5. 3 오후 5:03:38,최승연,28106625,개발,"JAVA, C#",전문과정,"IoT, 데이터베이스, 빅데이터, 클라우드, 프로그래밍"
2021. 5. 3 오후 5:05:41,김영호,28106565,개발,"JAVA, C / C++",전문과정,"SW공학, 프로그래밍"
2021. 5. 3 오후 5:06:25,박동철,28106574,개발,"JAVA, C / C++, C#",전문과정,"SW공학, 기술관리, 데이터베이스, 빅데이터"
2021. 5. 3 오후 5:22:24,윤혜연,28106592,비개발,,기초과정,"IoT, 보안, 시스템, 클라우드"
2021. 5. 3 오후 5:34:38,박찬명,28106580,개발,"C#, Python",기초과정,"SW공학, 데이터베이스, 데이터사이언스, 빅데이터, 운영체제, IT프로젝트관리"
2021. 5. 3 오후 5:34:52,김양희,28106562,개발,"JAVA, 웹(자바스크립트, HTML, CSS 등)",기초과정,"IoT, SW공학, 기술관리, 네트워크, 데이터베이스, 데이터사이언스, 세미나, 운영체제, 인공지능, 품질, IT프로젝트관리, 핀테크"
2021. 5. 3 오후 5:35:40,김태우,20186568,비개발,,,"데이터베이스, 데이터사이언스, 빅데이터, 인공지능, IT프로젝트관리, 핀테크"
2021. 5. 3 오후 5:41:47,조연재,28106613,개발,"JAVA, C / C++, 웹(자바스크립트, HTML, CSS 등)",전문과정,"IoT, SW공학, 네트워크, 데이터베이스, 데이터사이언스, 보안, 블록체인, 빅데이터, 시스템, 인공지능, 품질, 프로그래밍, 핀테크"
2021. 5. 3 오후 6:08:40,이국영,28106601,개발,"JAVA, 웹(자바스크립트, HTML, CSS 등)",전문과정,"SW공학, 보안, 블록체인, 빅데이터, 운영체제, 인공지능, 프로그래밍, IT프로젝트관리, 핀테크"